(['C:\\Users\\p\\Desktop\\compile\\ta.py'],
 ['C:\\Users\\p\\Desktop\\compile', 'C:\\Users\\p\\Desktop\\compile'],
 ['codecs'],
 [],
 [],
 [],
 False,
 False,
 '3.6.0 (v3.6.0:41df79263a11, Dec 23 2016, 07:18:10) [MSC v.1900 32 bit '
 '(Intel)]',
 [('pyi_rth_qt5',
   'c:\\users\\p\\appdata\\local\\programs\\python\\python36-32\\lib\\site-packages\\PyInstaller\\loader\\rthooks\\pyi_rth_qt5.py',
   'PYSOURCE'),
  ('ta', 'C:\\Users\\p\\Desktop\\compile\\ta.py', 'PYSOURCE')],
 [('_strptime',
   'c:\\users\\p\\appdata\\local\\programs\\python\\python36-32\\lib\\_strptime.py',
   'PYMODULE'),
  ('ntpath',
   'c:\\users\\p\\appdata\\local\\programs\\python\\python36-32\\lib\\ntpath.py',
   'PYMODULE'),
  ('stringprep',
   'c:\\users\\p\\appdata\\local\\programs\\python\\python36-32\\lib\\stringprep.py',
   'PYMODULE'),
  ('stat',
   'c:\\users\\p\\appdata\\local\\programs\\python\\python36-32\\lib\\stat.py',
   'PYMODULE'),
  ('genericpath',
   'c:\\users\\p\\appdata\\local\\programs\\python\\python36-32\\lib\\genericpath.py',
   'PYMODULE'),
  ('posixpath',
   'c:\\users\\p\\appdata\\local\\programs\\python\\python36-32\\lib\\posixpath.py',
   'PYMODULE'),
  ('fnmatch',
   'c:\\users\\p\\appdata\\local\\programs\\python\\python36-32\\lib\\fnmatch.py',
   'PYMODULE'),
  ('_compat_pickle',
   'c:\\users\\p\\appdata\\local\\programs\\python\\python36-32\\lib\\_compat_pickle.py',
   'PYMODULE'),
  ('__future__',
   'c:\\users\\p\\appdata\\local\\programs\\python\\python36-32\\lib\\__future__.py',
   'PYMODULE'),
  ('difflib',
   'c:\\users\\p\\appdata\\local\\programs\\python\\python36-32\\lib\\difflib.py',
   'PYMODULE'),
  ('ast',
   'c:\\users\\p\\appdata\\local\\programs\\python\\python36-32\\lib\\ast.py',
   'PYMODULE'),
  ('inspect',
   'c:\\users\\p\\appdata\\local\\programs\\python\\python36-32\\lib\\inspect.py',
   'PYMODULE'),
  ('cmd',
   'c:\\users\\p\\appdata\\local\\programs\\python\\python36-32\\lib\\cmd.py',
   'PYMODULE'),
  ('bdb',
   'c:\\users\\p\\appdata\\local\\programs\\python\\python36-32\\lib\\bdb.py',
   'PYMODULE'),
  ('opcode',
   'c:\\users\\p\\appdata\\local\\programs\\python\\python36-32\\lib\\opcode.py',
   'PYMODULE'),
  ('dis',
   'c:\\users\\p\\appdata\\local\\programs\\python\\python36-32\\lib\\dis.py',
   'PYMODULE'),
  ('codeop',
   'c:\\users\\p\\appdata\\local\\programs\\python\\python36-32\\lib\\codeop.py',
   'PYMODULE'),
  ('code',
   'c:\\users\\p\\appdata\\local\\programs\\python\\python36-32\\lib\\code.py',
   'PYMODULE'),
  ('glob',
   'c:\\users\\p\\appdata\\local\\programs\\python\\python36-32\\lib\\glob.py',
   'PYMODULE'),
  ('shlex',
   'c:\\users\\p\\appdata\\local\\programs\\python\\python36-32\\lib\\shlex.py',
   'PYMODULE'),
  ('importlib._bootstrap',
   'c:\\users\\p\\appdata\\local\\programs\\python\\python36-32\\lib\\importlib\\_bootstrap.py',
   'PYMODULE'),
  ('importlib._bootstrap_external',
   'c:\\users\\p\\appdata\\local\\programs\\python\\python36-32\\lib\\importlib\\_bootstrap_external.py',
   'PYMODULE'),
  ('importlib.machinery',
   'c:\\users\\p\\appdata\\local\\programs\\python\\python36-32\\lib\\importlib\\machinery.py',
   'PYMODULE'),
  ('importlib.util',
   'c:\\users\\p\\appdata\\local\\programs\\python\\python36-32\\lib\\importlib\\util.py',
   'PYMODULE'),
  ('importlib.abc',
   'c:\\users\\p\\appdata\\local\\programs\\python\\python36-32\\lib\\importlib\\abc.py',
   'PYMODULE'),
  ('importlib',
   'c:\\users\\p\\appdata\\local\\programs\\python\\python36-32\\lib\\importlib\\__init__.py',
   'PYMODULE'),
  ('pkgutil',
   'c:\\users\\p\\appdata\\local\\programs\\python\\python36-32\\lib\\pkgutil.py',
   'PYMODULE'),
  ('xml',
   'c:\\users\\p\\appdata\\local\\programs\\python\\python36-32\\lib\\xml\\__init__.py',
   'PYMODULE'),
  ('xml.sax.expatreader',
   'c:\\users\\p\\appdata\\local\\programs\\python\\python36-32\\lib\\xml\\sax\\expatreader.py',
   'PYMODULE'),
  ('xml.sax.saxutils',
   'c:\\users\\p\\appdata\\local\\programs\\python\\python36-32\\lib\\xml\\sax\\saxutils.py',
   'PYMODULE'),
  ('xml.sax',
   'c:\\users\\p\\appdata\\local\\programs\\python\\python36-32\\lib\\xml\\sax\\__init__.py',
   'PYMODULE'),
  ('xml.sax.handler',
   'c:\\users\\p\\appdata\\local\\programs\\python\\python36-32\\lib\\xml\\sax\\handler.py',
   'PYMODULE'),
  ('xml.sax._exceptions',
   'c:\\users\\p\\appdata\\local\\programs\\python\\python36-32\\lib\\xml\\sax\\_exceptions.py',
   'PYMODULE'),
  ('xml.sax.xmlreader',
   'c:\\users\\p\\appdata\\local\\programs\\python\\python36-32\\lib\\xml\\sax\\xmlreader.py',
   'PYMODULE'),
  ('xml.parsers',
   'c:\\users\\p\\appdata\\local\\programs\\python\\python36-32\\lib\\xml\\parsers\\__init__.py',
   'PYMODULE'),
  ('xml.parsers.expat',
   'c:\\users\\p\\appdata\\local\\programs\\python\\python36-32\\lib\\xml\\parsers\\expat.py',
   'PYMODULE'),
  ('plistlib',
   'c:\\users\\p\\appdata\\local\\programs\\python\\python36-32\\lib\\plistlib.py',
   'PYMODULE'),
  ('platform',
   'c:\\users\\p\\appdata\\local\\programs\\python\\python36-32\\lib\\platform.py',
   'PYMODULE'),
  ('tempfile',
   'c:\\users\\p\\appdata\\local\\programs\\python\\python36-32\\lib\\tempfile.py',
   'PYMODULE'),
  ('tty',
   'c:\\users\\p\\appdata\\local\\programs\\python\\python36-32\\lib\\tty.py',
   'PYMODULE'),
  ('pydoc_data',
   'c:\\users\\p\\appdata\\local\\programs\\python\\python36-32\\lib\\pydoc_data\\__init__.py',
   'PYMODULE'),
  ('pydoc_data.topics',
   'c:\\users\\p\\appdata\\local\\programs\\python\\python36-32\\lib\\pydoc_data\\topics.py',
   'PYMODULE'),
  ('html.entities',
   'c:\\users\\p\\appdata\\local\\programs\\python\\python36-32\\lib\\html\\entities.py',
   'PYMODULE'),
  ('html',
   'c:\\users\\p\\appdata\\local\\programs\\python\\python36-32\\lib\\html\\__init__.py',
   'PYMODULE'),
  ('ipaddress',
   'c:\\users\\p\\appdata\\local\\programs\\python\\python36-32\\lib\\ipaddress.py',
   'PYMODULE'),
  ('ssl',
   'c:\\users\\p\\appdata\\local\\programs\\python\\python36-32\\lib\\ssl.py',
   'PYMODULE'),
  ('mimetypes',
   'c:\\users\\p\\appdata\\local\\programs\\python\\python36-32\\lib\\mimetypes.py',
   'PYMODULE'),
  ('socketserver',
   'c:\\users\\p\\appdata\\local\\programs\\python\\python36-32\\lib\\socketserver.py',
   'PYMODULE'),
  ('http',
   'c:\\users\\p\\appdata\\local\\programs\\python\\python36-32\\lib\\http\\__init__.py',
   'PYMODULE'),
  ('http.server',
   'c:\\users\\p\\appdata\\local\\programs\\python\\python36-32\\lib\\http\\server.py',
   'PYMODULE'),
  ('optparse',
   'c:\\users\\p\\appdata\\local\\programs\\python\\python36-32\\lib\\optparse.py',
   'PYMODULE'),
  ('uu',
   'c:\\users\\p\\appdata\\local\\programs\\python\\python36-32\\lib\\uu.py',
   'PYMODULE'),
  ('quopri',
   'c:\\users\\p\\appdata\\local\\programs\\python\\python36-32\\lib\\quopri.py',
   'PYMODULE'),
  ('email.feedparser',
   'c:\\users\\p\\appdata\\local\\programs\\python\\python36-32\\lib\\email\\feedparser.py',
   'PYMODULE'),
  ('email.parser',
   'c:\\users\\p\\appdata\\local\\programs\\python\\python36-32\\lib\\email\\parser.py',
   'PYMODULE'),
  ('email',
   'c:\\users\\p\\appdata\\local\\programs\\python\\python36-32\\lib\\email\\__init__.py',
   'PYMODULE'),
  ('calendar',
   'c:\\users\\p\\appdata\\local\\programs\\python\\python36-32\\lib\\calendar.py',
   'PYMODULE'),
  ('email._parseaddr',
   'c:\\users\\p\\appdata\\local\\programs\\python\\python36-32\\lib\\email\\_parseaddr.py',
   'PYMODULE'),
  ('email.utils',
   'c:\\users\\p\\appdata\\local\\programs\\python\\python36-32\\lib\\email\\utils.py',
   'PYMODULE'),
  ('email.errors',
   'c:\\users\\p\\appdata\\local\\programs\\python\\python36-32\\lib\\email\\errors.py',
   'PYMODULE'),
  ('email.header',
   'c:\\users\\p\\appdata\\local\\programs\\python\\python36-32\\lib\\email\\header.py',
   'PYMODULE'),
  ('email._policybase',
   'c:\\users\\p\\appdata\\local\\programs\\python\\python36-32\\lib\\email\\_policybase.py',
   'PYMODULE'),
  ('email.base64mime',
   'c:\\users\\p\\appdata\\local\\programs\\python\\python36-32\\lib\\email\\base64mime.py',
   'PYMODULE'),
  ('email.encoders',
   'c:\\users\\p\\appdata\\local\\programs\\python\\python36-32\\lib\\email\\encoders.py',
   'PYMODULE'),
  ('email.charset',
   'c:\\users\\p\\appdata\\local\\programs\\python\\python36-32\\lib\\email\\charset.py',
   'PYMODULE'),
  ('base64',
   'c:\\users\\p\\appdata\\local\\programs\\python\\python36-32\\lib\\base64.py',
   'PYMODULE'),
  ('email._encoded_words',
   'c:\\users\\p\\appdata\\local\\programs\\python\\python36-32\\lib\\email\\_encoded_words.py',
   'PYMODULE'),
  ('hashlib',
   'c:\\users\\p\\appdata\\local\\programs\\python\\python36-32\\lib\\hashlib.py',
   'PYMODULE'),
  ('bisect',
   'c:\\users\\p\\appdata\\local\\programs\\python\\python36-32\\lib\\bisect.py',
   'PYMODULE'),
  ('random',
   'c:\\users\\p\\appdata\\local\\programs\\python\\python36-32\\lib\\random.py',
   'PYMODULE'),
  ('email.generator',
   'c:\\users\\p\\appdata\\local\\programs\\python\\python36-32\\lib\\email\\generator.py',
   'PYMODULE'),
  ('email.iterators',
   'c:\\users\\p\\appdata\\local\\programs\\python\\python36-32\\lib\\email\\iterators.py',
   'PYMODULE'),
  ('urllib',
   'c:\\users\\p\\appdata\\local\\programs\\python\\python36-32\\lib\\urllib\\__init__.py',
   'PYMODULE'),
  ('email._header_value_parser',
   'c:\\users\\p\\appdata\\local\\programs\\python\\python36-32\\lib\\email\\_header_value_parser.py',
   'PYMODULE'),
  ('email.headerregistry',
   'c:\\users\\p\\appdata\\local\\programs\\python\\python36-32\\lib\\email\\headerregistry.py',
   'PYMODULE'),
  ('email.quoprimime',
   'c:\\users\\p\\appdata\\local\\programs\\python\\python36-32\\lib\\email\\quoprimime.py',
   'PYMODULE'),
  ('email.contentmanager',
   'c:\\users\\p\\appdata\\local\\programs\\python\\python36-32\\lib\\email\\contentmanager.py',
   'PYMODULE'),
  ('email.policy',
   'c:\\users\\p\\appdata\\local\\programs\\python\\python36-32\\lib\\email\\policy.py',
   'PYMODULE'),
  ('email.message',
   'c:\\users\\p\\appdata\\local\\programs\\python\\python36-32\\lib\\email\\message.py',
   'PYMODULE'),
  ('gzip',
   'c:\\users\\p\\appdata\\local\\programs\\python\\python36-32\\lib\\gzip.py',
   'PYMODULE'),
  ('tarfile',
   'c:\\users\\p\\appdata\\local\\programs\\python\\python36-32\\lib\\tarfile.py',
   'PYMODULE'),
  ('bz2',
   'c:\\users\\p\\appdata\\local\\programs\\python\\python36-32\\lib\\bz2.py',
   'PYMODULE'),
  ('_compression',
   'c:\\users\\p\\appdata\\local\\programs\\python\\python36-32\\lib\\_compression.py',
   'PYMODULE'),
  ('lzma',
   'c:\\users\\p\\appdata\\local\\programs\\python\\python36-32\\lib\\lzma.py',
   'PYMODULE'),
  ('py_compile',
   'c:\\users\\p\\appdata\\local\\programs\\python\\python36-32\\lib\\py_compile.py',
   'PYMODULE'),
  ('zipfile',
   'c:\\users\\p\\appdata\\local\\programs\\python\\python36-32\\lib\\zipfile.py',
   'PYMODULE'),
  ('shutil',
   'c:\\users\\p\\appdata\\local\\programs\\python\\python36-32\\lib\\shutil.py',
   'PYMODULE'),
  ('socket',
   'c:\\users\\p\\appdata\\local\\programs\\python\\python36-32\\lib\\socket.py',
   'PYMODULE'),
  ('pydoc',
   'c:\\users\\p\\appdata\\local\\programs\\python\\python36-32\\lib\\pydoc.py',
   'PYMODULE'),
  ('getopt',
   'c:\\users\\p\\appdata\\local\\programs\\python\\python36-32\\lib\\getopt.py',
   'PYMODULE'),
  ('pdb',
   'c:\\users\\p\\appdata\\local\\programs\\python\\python36-32\\lib\\pdb.py',
   'PYMODULE'),
  ('unittest.util',
   'c:\\users\\p\\appdata\\local\\programs\\python\\python36-32\\lib\\unittest\\util.py',
   'PYMODULE'),
  ('unittest.result',
   'c:\\users\\p\\appdata\\local\\programs\\python\\python36-32\\lib\\unittest\\result.py',
   'PYMODULE'),
  ('string',
   'c:\\users\\p\\appdata\\local\\programs\\python\\python36-32\\lib\\string.py',
   'PYMODULE'),
  ('logging',
   'c:\\users\\p\\appdata\\local\\programs\\python\\python36-32\\lib\\logging\\__init__.py',
   'PYMODULE'),
  ('unittest.case',
   'c:\\users\\p\\appdata\\local\\programs\\python\\python36-32\\lib\\unittest\\case.py',
   'PYMODULE'),
  ('unittest.suite',
   'c:\\users\\p\\appdata\\local\\programs\\python\\python36-32\\lib\\unittest\\suite.py',
   'PYMODULE'),
  ('unittest.loader',
   'c:\\users\\p\\appdata\\local\\programs\\python\\python36-32\\lib\\unittest\\loader.py',
   'PYMODULE'),
  ('unittest.runner',
   'c:\\users\\p\\appdata\\local\\programs\\python\\python36-32\\lib\\unittest\\runner.py',
   'PYMODULE'),
  ('unittest.main',
   'c:\\users\\p\\appdata\\local\\programs\\python\\python36-32\\lib\\unittest\\main.py',
   'PYMODULE'),
  ('unittest.signals',
   'c:\\users\\p\\appdata\\local\\programs\\python\\python36-32\\lib\\unittest\\signals.py',
   'PYMODULE'),
  ('unittest',
   'c:\\users\\p\\appdata\\local\\programs\\python\\python36-32\\lib\\unittest\\__init__.py',
   'PYMODULE'),
  ('doctest',
   'c:\\users\\p\\appdata\\local\\programs\\python\\python36-32\\lib\\doctest.py',
   'PYMODULE'),
  ('pprint',
   'c:\\users\\p\\appdata\\local\\programs\\python\\python36-32\\lib\\pprint.py',
   'PYMODULE'),
  ('pickle',
   'c:\\users\\p\\appdata\\local\\programs\\python\\python36-32\\lib\\pickle.py',
   'PYMODULE'),
  ('tracemalloc',
   'c:\\users\\p\\appdata\\local\\programs\\python\\python36-32\\lib\\tracemalloc.py',
   'PYMODULE'),
  ('warnings',
   'c:\\users\\p\\appdata\\local\\programs\\python\\python36-32\\lib\\warnings.py',
   'PYMODULE'),
  ('enum',
   'c:\\users\\p\\appdata\\local\\programs\\python\\python36-32\\lib\\enum.py',
   'PYMODULE'),
  ('signal',
   'c:\\users\\p\\appdata\\local\\programs\\python\\python36-32\\lib\\signal.py',
   'PYMODULE'),
  ('contextlib',
   'c:\\users\\p\\appdata\\local\\programs\\python\\python36-32\\lib\\contextlib.py',
   'PYMODULE'),
  ('_threading_local',
   'c:\\users\\p\\appdata\\local\\programs\\python\\python36-32\\lib\\_threading_local.py',
   'PYMODULE'),
  ('threading',
   'c:\\users\\p\\appdata\\local\\programs\\python\\python36-32\\lib\\threading.py',
   'PYMODULE'),
  ('selectors',
   'c:\\users\\p\\appdata\\local\\programs\\python\\python36-32\\lib\\selectors.py',
   'PYMODULE'),
  ('_dummy_thread',
   'c:\\users\\p\\appdata\\local\\programs\\python\\python36-32\\lib\\_dummy_thread.py',
   'PYMODULE'),
  ('dummy_threading',
   'c:\\users\\p\\appdata\\local\\programs\\python\\python36-32\\lib\\dummy_threading.py',
   'PYMODULE'),
  ('subprocess',
   'c:\\users\\p\\appdata\\local\\programs\\python\\python36-32\\lib\\subprocess.py',
   'PYMODULE'),
  ('os',
   'c:\\users\\p\\appdata\\local\\programs\\python\\python36-32\\lib\\os.py',
   'PYMODULE'),
  ('token',
   'c:\\users\\p\\appdata\\local\\programs\\python\\python36-32\\lib\\token.py',
   'PYMODULE'),
  ('copy',
   'c:\\users\\p\\appdata\\local\\programs\\python\\python36-32\\lib\\copy.py',
   'PYMODULE'),
  ('textwrap',
   'c:\\users\\p\\appdata\\local\\programs\\python\\python36-32\\lib\\textwrap.py',
   'PYMODULE'),
  ('struct',
   'c:\\users\\p\\appdata\\local\\programs\\python\\python36-32\\lib\\struct.py',
   'PYMODULE'),
  ('gettext',
   'c:\\users\\p\\appdata\\local\\programs\\python\\python36-32\\lib\\gettext.py',
   'PYMODULE'),
  ('argparse',
   'c:\\users\\p\\appdata\\local\\programs\\python\\python36-32\\lib\\argparse.py',
   'PYMODULE'),
  ('tokenize',
   'c:\\users\\p\\appdata\\local\\programs\\python\\python36-32\\lib\\tokenize.py',
   'PYMODULE'),
  ('webbrowser',
   'c:\\users\\p\\appdata\\local\\programs\\python\\python36-32\\lib\\webbrowser.py',
   'PYMODULE'),
  ('datetime',
   'c:\\users\\p\\appdata\\local\\programs\\python\\python36-32\\lib\\datetime.py',
   'PYMODULE'),
  ('PyQt5',
   'c:\\users\\p\\appdata\\local\\programs\\python\\python36-32\\lib\\site-packages\\PyQt5\\__init__.py',
   'PYMODULE'),
  ('http.client',
   'c:\\users\\p\\appdata\\local\\programs\\python\\python36-32\\lib\\http\\client.py',
   'PYMODULE'),
  ('requests',
   'c:\\users\\p\\appdata\\local\\programs\\python\\python36-32\\lib\\site-packages\\requests\\__init__.py',
   'PYMODULE'),
  ('requests.status_codes',
   'c:\\users\\p\\appdata\\local\\programs\\python\\python36-32\\lib\\site-packages\\requests\\status_codes.py',
   'PYMODULE'),
  ('requests.structures',
   'c:\\users\\p\\appdata\\local\\programs\\python\\python36-32\\lib\\site-packages\\requests\\structures.py',
   'PYMODULE'),
  ('requests.compat',
   'c:\\users\\p\\appdata\\local\\programs\\python\\python36-32\\lib\\site-packages\\requests\\compat.py',
   'PYMODULE'),
  ('http.cookies',
   'c:\\users\\p\\appdata\\local\\programs\\python\\python36-32\\lib\\http\\cookies.py',
   'PYMODULE'),
  ('http.cookiejar',
   'c:\\users\\p\\appdata\\local\\programs\\python\\python36-32\\lib\\http\\cookiejar.py',
   'PYMODULE'),
  ('urllib3.packages.ordered_dict',
   'c:\\users\\p\\appdata\\local\\programs\\python\\python36-32\\lib\\site-packages\\urllib3\\packages\\ordered_dict.py',
   'PYMODULE'),
  ('urllib3.packages',
   'c:\\users\\p\\appdata\\local\\programs\\python\\python36-32\\lib\\site-packages\\urllib3\\packages\\__init__.py',
   'PYMODULE'),
  ('urllib3.packages.ssl_match_hostname',
   'c:\\users\\p\\appdata\\local\\programs\\python\\python36-32\\lib\\site-packages\\urllib3\\packages\\ssl_match_hostname\\__init__.py',
   'PYMODULE'),
  ('urllib3.packages.ssl_match_hostname._implementation',
   'c:\\users\\p\\appdata\\local\\programs\\python\\python36-32\\lib\\site-packages\\urllib3\\packages\\ssl_match_hostname\\_implementation.py',
   'PYMODULE'),
  ('json',
   'c:\\users\\p\\appdata\\local\\programs\\python\\python36-32\\lib\\json\\__init__.py',
   'PYMODULE'),
  ('json.encoder',
   'c:\\users\\p\\appdata\\local\\programs\\python\\python36-32\\lib\\json\\encoder.py',
   'PYMODULE'),
  ('json.decoder',
   'c:\\users\\p\\appdata\\local\\programs\\python\\python36-32\\lib\\json\\decoder.py',
   'PYMODULE'),
  ('json.scanner',
   'c:\\users\\p\\appdata\\local\\programs\\python\\python36-32\\lib\\json\\scanner.py',
   'PYMODULE'),
  ('requests.api',
   'c:\\users\\p\\appdata\\local\\programs\\python\\python36-32\\lib\\site-packages\\requests\\api.py',
   'PYMODULE'),
  ('requests.sessions',
   'c:\\users\\p\\appdata\\local\\programs\\python\\python36-32\\lib\\site-packages\\requests\\sessions.py',
   'PYMODULE'),
  ('requests.adapters',
   'c:\\users\\p\\appdata\\local\\programs\\python\\python36-32\\lib\\site-packages\\requests\\adapters.py',
   'PYMODULE'),
  ('urllib3.contrib.socks',
   'c:\\users\\p\\appdata\\local\\programs\\python\\python36-32\\lib\\site-packages\\urllib3\\contrib\\socks.py',
   'PYMODULE'),
  ('urllib3.util.url',
   'c:\\users\\p\\appdata\\local\\programs\\python\\python36-32\\lib\\site-packages\\urllib3\\util\\url.py',
   'PYMODULE'),
  ('urllib3.connectionpool',
   'c:\\users\\p\\appdata\\local\\programs\\python\\python36-32\\lib\\site-packages\\urllib3\\connectionpool.py',
   'PYMODULE'),
  ('urllib3.util.timeout',
   'c:\\users\\p\\appdata\\local\\programs\\python\\python36-32\\lib\\site-packages\\urllib3\\util\\timeout.py',
   'PYMODULE'),
  ('urllib3.util.response',
   'c:\\users\\p\\appdata\\local\\programs\\python\\python36-32\\lib\\site-packages\\urllib3\\util\\response.py',
   'PYMODULE'),
  ('urllib3.util.request',
   'c:\\users\\p\\appdata\\local\\programs\\python\\python36-32\\lib\\site-packages\\urllib3\\util\\request.py',
   'PYMODULE'),
  ('urllib3.util.connection',
   'c:\\users\\p\\appdata\\local\\programs\\python\\python36-32\\lib\\site-packages\\urllib3\\util\\connection.py',
   'PYMODULE'),
  ('urllib3.util.selectors',
   'c:\\users\\p\\appdata\\local\\programs\\python\\python36-32\\lib\\site-packages\\urllib3\\util\\selectors.py',
   'PYMODULE'),
  ('urllib3.util.wait',
   'c:\\users\\p\\appdata\\local\\programs\\python\\python36-32\\lib\\site-packages\\urllib3\\util\\wait.py',
   'PYMODULE'),
  ('urllib3.request',
   'c:\\users\\p\\appdata\\local\\programs\\python\\python36-32\\lib\\site-packages\\urllib3\\request.py',
   'PYMODULE'),
  ('urllib3.filepost',
   'c:\\users\\p\\appdata\\local\\programs\\python\\python36-32\\lib\\site-packages\\urllib3\\filepost.py',
   'PYMODULE'),
  ('urllib3.fields',
   'c:\\users\\p\\appdata\\local\\programs\\python\\python36-32\\lib\\site-packages\\urllib3\\fields.py',
   'PYMODULE'),
  ('uuid',
   'c:\\users\\p\\appdata\\local\\programs\\python\\python36-32\\lib\\uuid.py',
   'PYMODULE'),
  ('ctypes.util',
   'c:\\users\\p\\appdata\\local\\programs\\python\\python36-32\\lib\\ctypes\\util.py',
   'PYMODULE'),
  ('ctypes.macholib.dyld',
   'c:\\users\\p\\appdata\\local\\programs\\python\\python36-32\\lib\\ctypes\\macholib\\dyld.py',
   'PYMODULE'),
  ('ctypes.macholib',
   'c:\\users\\p\\appdata\\local\\programs\\python\\python36-32\\lib\\ctypes\\macholib\\__init__.py',
   'PYMODULE'),
  ('ctypes.macholib.dylib',
   'c:\\users\\p\\appdata\\local\\programs\\python\\python36-32\\lib\\ctypes\\macholib\\dylib.py',
   'PYMODULE'),
  ('ctypes.macholib.framework',
   'c:\\users\\p\\appdata\\local\\programs\\python\\python36-32\\lib\\ctypes\\macholib\\framework.py',
   'PYMODULE'),
  ('netbios',
   'c:\\users\\p\\appdata\\local\\programs\\python\\python36-32\\lib\\site-packages\\win32\\lib\\netbios.py',
   'PYMODULE'),
  ('ctypes',
   'c:\\users\\p\\appdata\\local\\programs\\python\\python36-32\\lib\\ctypes\\__init__.py',
   'PYMODULE'),
  ('ctypes._endian',
   'c:\\users\\p\\appdata\\local\\programs\\python\\python36-32\\lib\\ctypes\\_endian.py',
   'PYMODULE'),
  ('queue',
   'c:\\users\\p\\appdata\\local\\programs\\python\\python36-32\\lib\\queue.py',
   'PYMODULE'),
  ('urllib3.packages.six',
   'c:\\users\\p\\appdata\\local\\programs\\python\\python36-32\\lib\\site-packages\\urllib3\\packages\\six.py',
   'PYMODULE'),
  ('urllib3.connection',
   'c:\\users\\p\\appdata\\local\\programs\\python\\python36-32\\lib\\site-packages\\urllib3\\connection.py',
   'PYMODULE'),
  ('urllib3._collections',
   'c:\\users\\p\\appdata\\local\\programs\\python\\python36-32\\lib\\site-packages\\urllib3\\_collections.py',
   'PYMODULE'),
  ('urllib3.util.ssl_',
   'c:\\users\\p\\appdata\\local\\programs\\python\\python36-32\\lib\\site-packages\\urllib3\\util\\ssl_.py',
   'PYMODULE'),
  ('hmac',
   'c:\\users\\p\\appdata\\local\\programs\\python\\python36-32\\lib\\hmac.py',
   'PYMODULE'),
  ('urllib3.util.retry',
   'c:\\users\\p\\appdata\\local\\programs\\python\\python36-32\\lib\\site-packages\\urllib3\\util\\retry.py',
   'PYMODULE'),
  ('urllib3.util',
   'c:\\users\\p\\appdata\\local\\programs\\python\\python36-32\\lib\\site-packages\\urllib3\\util\\__init__.py',
   'PYMODULE'),
  ('urllib3.response',
   'c:\\users\\p\\appdata\\local\\programs\\python\\python36-32\\lib\\site-packages\\urllib3\\response.py',
   'PYMODULE'),
  ('urllib3.poolmanager',
   'c:\\users\\p\\appdata\\local\\programs\\python\\python36-32\\lib\\site-packages\\urllib3\\poolmanager.py',
   'PYMODULE'),
  ('requests._internal_utils',
   'c:\\users\\p\\appdata\\local\\programs\\python\\python36-32\\lib\\site-packages\\requests\\_internal_utils.py',
   'PYMODULE'),
  ('requests.hooks',
   'c:\\users\\p\\appdata\\local\\programs\\python\\python36-32\\lib\\site-packages\\requests\\hooks.py',
   'PYMODULE'),
  ('requests.cookies',
   'c:\\users\\p\\appdata\\local\\programs\\python\\python36-32\\lib\\site-packages\\requests\\cookies.py',
   'PYMODULE'),
  ('requests.auth',
   'c:\\users\\p\\appdata\\local\\programs\\python\\python36-32\\lib\\site-packages\\requests\\auth.py',
   'PYMODULE'),
  ('requests.models',
   'c:\\users\\p\\appdata\\local\\programs\\python\\python36-32\\lib\\site-packages\\requests\\models.py',
   'PYMODULE'),
  ('idna',
   'c:\\users\\p\\appdata\\local\\programs\\python\\python36-32\\lib\\site-packages\\idna\\__init__.py',
   'PYMODULE'),
  ('idna.core',
   'c:\\users\\p\\appdata\\local\\programs\\python\\python36-32\\lib\\site-packages\\idna\\core.py',
   'PYMODULE'),
  ('idna.uts46data',
   'c:\\users\\p\\appdata\\local\\programs\\python\\python36-32\\lib\\site-packages\\idna\\uts46data.py',
   'PYMODULE'),
  ('idna.intranges',
   'c:\\users\\p\\appdata\\local\\programs\\python\\python36-32\\lib\\site-packages\\idna\\intranges.py',
   'PYMODULE'),
  ('idna.idnadata',
   'c:\\users\\p\\appdata\\local\\programs\\python\\python36-32\\lib\\site-packages\\idna\\idnadata.py',
   'PYMODULE'),
  ('idna.package_data',
   'c:\\users\\p\\appdata\\local\\programs\\python\\python36-32\\lib\\site-packages\\idna\\package_data.py',
   'PYMODULE'),
  ('requests.packages',
   'c:\\users\\p\\appdata\\local\\programs\\python\\python36-32\\lib\\site-packages\\requests\\packages.py',
   'PYMODULE'),
  ('requests.utils',
   'c:\\users\\p\\appdata\\local\\programs\\python\\python36-32\\lib\\site-packages\\requests\\utils.py',
   'PYMODULE'),
  ('netrc',
   'c:\\users\\p\\appdata\\local\\programs\\python\\python36-32\\lib\\netrc.py',
   'PYMODULE'),
  ('cgi',
   'c:\\users\\p\\appdata\\local\\programs\\python\\python36-32\\lib\\cgi.py',
   'PYMODULE'),
  ('requests.certs',
   'c:\\users\\p\\appdata\\local\\programs\\python\\python36-32\\lib\\site-packages\\requests\\certs.py',
   'PYMODULE'),
  ('certifi',
   'c:\\users\\p\\appdata\\local\\programs\\python\\python36-32\\lib\\site-packages\\certifi\\__init__.py',
   'PYMODULE'),
  ('certifi.core',
   'c:\\users\\p\\appdata\\local\\programs\\python\\python36-32\\lib\\site-packages\\certifi\\core.py',
   'PYMODULE'),
  ('requests.__version__',
   'c:\\users\\p\\appdata\\local\\programs\\python\\python36-32\\lib\\site-packages\\requests\\__version__.py',
   'PYMODULE'),
  ('urllib3.exceptions',
   'c:\\users\\p\\appdata\\local\\programs\\python\\python36-32\\lib\\site-packages\\urllib3\\exceptions.py',
   'PYMODULE'),
  ('urllib3.contrib.pyopenssl',
   'c:\\users\\p\\appdata\\local\\programs\\python\\python36-32\\lib\\site-packages\\urllib3\\contrib\\pyopenssl.py',
   'PYMODULE'),
  ('urllib3.packages.backports.makefile',
   'c:\\users\\p\\appdata\\local\\programs\\python\\python36-32\\lib\\site-packages\\urllib3\\packages\\backports\\makefile.py',
   'PYMODULE'),
  ('urllib3.packages.backports',
   'c:\\users\\p\\appdata\\local\\programs\\python\\python36-32\\lib\\site-packages\\urllib3\\packages\\backports\\__init__.py',
   'PYMODULE'),
  ('urllib3.contrib',
   'c:\\users\\p\\appdata\\local\\programs\\python\\python36-32\\lib\\site-packages\\urllib3\\contrib\\__init__.py',
   'PYMODULE'),
  ('requests.exceptions',
   'c:\\users\\p\\appdata\\local\\programs\\python\\python36-32\\lib\\site-packages\\requests\\exceptions.py',
   'PYMODULE'),
  ('chardet',
   'c:\\users\\p\\appdata\\local\\programs\\python\\python36-32\\lib\\site-packages\\chardet\\__init__.py',
   'PYMODULE'),
  ('chardet.version',
   'c:\\users\\p\\appdata\\local\\programs\\python\\python36-32\\lib\\site-packages\\chardet\\version.py',
   'PYMODULE'),
  ('chardet.universaldetector',
   'c:\\users\\p\\appdata\\local\\programs\\python\\python36-32\\lib\\site-packages\\chardet\\universaldetector.py',
   'PYMODULE'),
  ('chardet.sbcsgroupprober',
   'c:\\users\\p\\appdata\\local\\programs\\python\\python36-32\\lib\\site-packages\\chardet\\sbcsgroupprober.py',
   'PYMODULE'),
  ('chardet.langturkishmodel',
   'c:\\users\\p\\appdata\\local\\programs\\python\\python36-32\\lib\\site-packages\\chardet\\langturkishmodel.py',
   'PYMODULE'),
  ('chardet.hebrewprober',
   'c:\\users\\p\\appdata\\local\\programs\\python\\python36-32\\lib\\site-packages\\chardet\\hebrewprober.py',
   'PYMODULE'),
  ('chardet.charsetprober',
   'c:\\users\\p\\appdata\\local\\programs\\python\\python36-32\\lib\\site-packages\\chardet\\charsetprober.py',
   'PYMODULE'),
  ('chardet.langhebrewmodel',
   'c:\\users\\p\\appdata\\local\\programs\\python\\python36-32\\lib\\site-packages\\chardet\\langhebrewmodel.py',
   'PYMODULE'),
  ('chardet.langthaimodel',
   'c:\\users\\p\\appdata\\local\\programs\\python\\python36-32\\lib\\site-packages\\chardet\\langthaimodel.py',
   'PYMODULE'),
  ('chardet.langbulgarianmodel',
   'c:\\users\\p\\appdata\\local\\programs\\python\\python36-32\\lib\\site-packages\\chardet\\langbulgarianmodel.py',
   'PYMODULE'),
  ('chardet.langgreekmodel',
   'c:\\users\\p\\appdata\\local\\programs\\python\\python36-32\\lib\\site-packages\\chardet\\langgreekmodel.py',
   'PYMODULE'),
  ('chardet.langcyrillicmodel',
   'c:\\users\\p\\appdata\\local\\programs\\python\\python36-32\\lib\\site-packages\\chardet\\langcyrillicmodel.py',
   'PYMODULE'),
  ('chardet.sbcharsetprober',
   'c:\\users\\p\\appdata\\local\\programs\\python\\python36-32\\lib\\site-packages\\chardet\\sbcharsetprober.py',
   'PYMODULE'),
  ('chardet.mbcsgroupprober',
   'c:\\users\\p\\appdata\\local\\programs\\python\\python36-32\\lib\\site-packages\\chardet\\mbcsgroupprober.py',
   'PYMODULE'),
  ('chardet.euctwprober',
   'c:\\users\\p\\appdata\\local\\programs\\python\\python36-32\\lib\\site-packages\\chardet\\euctwprober.py',
   'PYMODULE'),
  ('chardet.mbcssm',
   'c:\\users\\p\\appdata\\local\\programs\\python\\python36-32\\lib\\site-packages\\chardet\\mbcssm.py',
   'PYMODULE'),
  ('chardet.chardistribution',
   'c:\\users\\p\\appdata\\local\\programs\\python\\python36-32\\lib\\site-packages\\chardet\\chardistribution.py',
   'PYMODULE'),
  ('chardet.jisfreq',
   'c:\\users\\p\\appdata\\local\\programs\\python\\python36-32\\lib\\site-packages\\chardet\\jisfreq.py',
   'PYMODULE'),
  ('chardet.big5freq',
   'c:\\users\\p\\appdata\\local\\programs\\python\\python36-32\\lib\\site-packages\\chardet\\big5freq.py',
   'PYMODULE'),
  ('chardet.gb2312freq',
   'c:\\users\\p\\appdata\\local\\programs\\python\\python36-32\\lib\\site-packages\\chardet\\gb2312freq.py',
   'PYMODULE'),
  ('chardet.euckrfreq',
   'c:\\users\\p\\appdata\\local\\programs\\python\\python36-32\\lib\\site-packages\\chardet\\euckrfreq.py',
   'PYMODULE'),
  ('chardet.euctwfreq',
   'c:\\users\\p\\appdata\\local\\programs\\python\\python36-32\\lib\\site-packages\\chardet\\euctwfreq.py',
   'PYMODULE'),
  ('chardet.codingstatemachine',
   'c:\\users\\p\\appdata\\local\\programs\\python\\python36-32\\lib\\site-packages\\chardet\\codingstatemachine.py',
   'PYMODULE'),
  ('chardet.mbcharsetprober',
   'c:\\users\\p\\appdata\\local\\programs\\python\\python36-32\\lib\\site-packages\\chardet\\mbcharsetprober.py',
   'PYMODULE'),
  ('chardet.big5prober',
   'c:\\users\\p\\appdata\\local\\programs\\python\\python36-32\\lib\\site-packages\\chardet\\big5prober.py',
   'PYMODULE'),
  ('chardet.cp949prober',
   'c:\\users\\p\\appdata\\local\\programs\\python\\python36-32\\lib\\site-packages\\chardet\\cp949prober.py',
   'PYMODULE'),
  ('chardet.euckrprober',
   'c:\\users\\p\\appdata\\local\\programs\\python\\python36-32\\lib\\site-packages\\chardet\\euckrprober.py',
   'PYMODULE'),
  ('chardet.gb2312prober',
   'c:\\users\\p\\appdata\\local\\programs\\python\\python36-32\\lib\\site-packages\\chardet\\gb2312prober.py',
   'PYMODULE'),
  ('chardet.eucjpprober',
   'c:\\users\\p\\appdata\\local\\programs\\python\\python36-32\\lib\\site-packages\\chardet\\eucjpprober.py',
   'PYMODULE'),
  ('chardet.jpcntx',
   'c:\\users\\p\\appdata\\local\\programs\\python\\python36-32\\lib\\site-packages\\chardet\\jpcntx.py',
   'PYMODULE'),
  ('chardet.sjisprober',
   'c:\\users\\p\\appdata\\local\\programs\\python\\python36-32\\lib\\site-packages\\chardet\\sjisprober.py',
   'PYMODULE'),
  ('chardet.utf8prober',
   'c:\\users\\p\\appdata\\local\\programs\\python\\python36-32\\lib\\site-packages\\chardet\\utf8prober.py',
   'PYMODULE'),
  ('chardet.latin1prober',
   'c:\\users\\p\\appdata\\local\\programs\\python\\python36-32\\lib\\site-packages\\chardet\\latin1prober.py',
   'PYMODULE'),
  ('chardet.escprober',
   'c:\\users\\p\\appdata\\local\\programs\\python\\python36-32\\lib\\site-packages\\chardet\\escprober.py',
   'PYMODULE'),
  ('chardet.escsm',
   'c:\\users\\p\\appdata\\local\\programs\\python\\python36-32\\lib\\site-packages\\chardet\\escsm.py',
   'PYMODULE'),
  ('chardet.enums',
   'c:\\users\\p\\appdata\\local\\programs\\python\\python36-32\\lib\\site-packages\\chardet\\enums.py',
   'PYMODULE'),
  ('chardet.charsetgroupprober',
   'c:\\users\\p\\appdata\\local\\programs\\python\\python36-32\\lib\\site-packages\\chardet\\charsetgroupprober.py',
   'PYMODULE'),
  ('chardet.compat',
   'c:\\users\\p\\appdata\\local\\programs\\python\\python36-32\\lib\\site-packages\\chardet\\compat.py',
   'PYMODULE'),
  ('urllib3',
   'c:\\users\\p\\appdata\\local\\programs\\python\\python36-32\\lib\\site-packages\\urllib3\\__init__.py',
   'PYMODULE'),
  ('urllib.error',
   'c:\\users\\p\\appdata\\local\\programs\\python\\python36-32\\lib\\urllib\\error.py',
   'PYMODULE'),
  ('urllib.response',
   'c:\\users\\p\\appdata\\local\\programs\\python\\python36-32\\lib\\urllib\\response.py',
   'PYMODULE'),
  ('urllib.request',
   'c:\\users\\p\\appdata\\local\\programs\\python\\python36-32\\lib\\urllib\\request.py',
   'PYMODULE'),
  ('getpass',
   'c:\\users\\p\\appdata\\local\\programs\\python\\python36-32\\lib\\getpass.py',
   'PYMODULE'),
  ('nturl2path',
   'c:\\users\\p\\appdata\\local\\programs\\python\\python36-32\\lib\\nturl2path.py',
   'PYMODULE'),
  ('ftplib',
   'c:\\users\\p\\appdata\\local\\programs\\python\\python36-32\\lib\\ftplib.py',
   'PYMODULE'),
  ('urllib.parse',
   'c:\\users\\p\\appdata\\local\\programs\\python\\python36-32\\lib\\urllib\\parse.py',
   'PYMODULE'),
  ('bs4',
   'c:\\users\\p\\appdata\\local\\programs\\python\\python36-32\\lib\\site-packages\\bs4\\__init__.py',
   'PYMODULE'),
  ('bs4.element',
   'c:\\users\\p\\appdata\\local\\programs\\python\\python36-32\\lib\\site-packages\\bs4\\element.py',
   'PYMODULE'),
  ('bs4.dammit',
   'c:\\users\\p\\appdata\\local\\programs\\python\\python36-32\\lib\\site-packages\\bs4\\dammit.py',
   'PYMODULE'),
  ('bs4.builder',
   'c:\\users\\p\\appdata\\local\\programs\\python\\python36-32\\lib\\site-packages\\bs4\\builder\\__init__.py',
   'PYMODULE'),
  ('bs4.builder._lxml',
   'c:\\users\\p\\appdata\\local\\programs\\python\\python36-32\\lib\\site-packages\\bs4\\builder\\_lxml.py',
   'PYMODULE'),
  ('lxml',
   'c:\\users\\p\\appdata\\local\\programs\\python\\python36-32\\lib\\site-packages\\lxml\\__init__.py',
   'PYMODULE'),
  ('bs4.builder._html5lib',
   'c:\\users\\p\\appdata\\local\\programs\\python\\python36-32\\lib\\site-packages\\bs4\\builder\\_html5lib.py',
   'PYMODULE'),
  ('html5lib.treebuilders.base',
   'c:\\users\\p\\appdata\\local\\programs\\python\\python36-32\\lib\\site-packages\\html5lib\\treebuilders\\base.py',
   'PYMODULE'),
  ('six',
   'c:\\users\\p\\appdata\\local\\programs\\python\\python36-32\\lib\\site-packages\\six.py',
   'PYMODULE'),
  ('html5lib.treebuilders',
   'c:\\users\\p\\appdata\\local\\programs\\python\\python36-32\\lib\\site-packages\\html5lib\\treebuilders\\__init__.py',
   'PYMODULE'),
  ('html5lib.treebuilders.etree_lxml',
   'c:\\users\\p\\appdata\\local\\programs\\python\\python36-32\\lib\\site-packages\\html5lib\\treebuilders\\etree_lxml.py',
   'PYMODULE'),
  ('html5lib._ihatexml',
   'c:\\users\\p\\appdata\\local\\programs\\python\\python36-32\\lib\\site-packages\\html5lib\\_ihatexml.py',
   'PYMODULE'),
  ('html5lib.treebuilders.etree',
   'c:\\users\\p\\appdata\\local\\programs\\python\\python36-32\\lib\\site-packages\\html5lib\\treebuilders\\etree.py',
   'PYMODULE'),
  ('xml.dom.minidom',
   'c:\\users\\p\\appdata\\local\\programs\\python\\python36-32\\lib\\xml\\dom\\minidom.py',
   'PYMODULE'),
  ('xml.dom.pulldom',
   'c:\\users\\p\\appdata\\local\\programs\\python\\python36-32\\lib\\xml\\dom\\pulldom.py',
   'PYMODULE'),
  ('xml.dom.expatbuilder',
   'c:\\users\\p\\appdata\\local\\programs\\python\\python36-32\\lib\\xml\\dom\\expatbuilder.py',
   'PYMODULE'),
  ('xml.dom.NodeFilter',
   'c:\\users\\p\\appdata\\local\\programs\\python\\python36-32\\lib\\xml\\dom\\NodeFilter.py',
   'PYMODULE'),
  ('xml.dom.xmlbuilder',
   'c:\\users\\p\\appdata\\local\\programs\\python\\python36-32\\lib\\xml\\dom\\xmlbuilder.py',
   'PYMODULE'),
  ('xml.dom.minicompat',
   'c:\\users\\p\\appdata\\local\\programs\\python\\python36-32\\lib\\xml\\dom\\minicompat.py',
   'PYMODULE'),
  ('xml.dom.domreg',
   'c:\\users\\p\\appdata\\local\\programs\\python\\python36-32\\lib\\xml\\dom\\domreg.py',
   'PYMODULE'),
  ('xml.dom',
   'c:\\users\\p\\appdata\\local\\programs\\python\\python36-32\\lib\\xml\\dom\\__init__.py',
   'PYMODULE'),
  ('html5lib.treebuilders.dom',
   'c:\\users\\p\\appdata\\local\\programs\\python\\python36-32\\lib\\site-packages\\html5lib\\treebuilders\\dom.py',
   'PYMODULE'),
  ('html5lib._utils',
   'c:\\users\\p\\appdata\\local\\programs\\python\\python36-32\\lib\\site-packages\\html5lib\\_utils.py',
   'PYMODULE'),
  ('xml.etree.ElementTree',
   'c:\\users\\p\\appdata\\local\\programs\\python\\python36-32\\lib\\xml\\etree\\ElementTree.py',
   'PYMODULE'),
  ('xml.etree.ElementInclude',
   'c:\\users\\p\\appdata\\local\\programs\\python\\python36-32\\lib\\xml\\etree\\ElementInclude.py',
   'PYMODULE'),
  ('xml.etree.ElementPath',
   'c:\\users\\p\\appdata\\local\\programs\\python\\python36-32\\lib\\xml\\etree\\ElementPath.py',
   'PYMODULE'),
  ('xml.etree',
   'c:\\users\\p\\appdata\\local\\programs\\python\\python36-32\\lib\\xml\\etree\\__init__.py',
   'PYMODULE'),
  ('xml.etree.cElementTree',
   'c:\\users\\p\\appdata\\local\\programs\\python\\python36-32\\lib\\xml\\etree\\cElementTree.py',
   'PYMODULE'),
  ('html5lib.constants',
   'c:\\users\\p\\appdata\\local\\programs\\python\\python36-32\\lib\\site-packages\\html5lib\\constants.py',
   'PYMODULE'),
  ('html5lib',
   'c:\\users\\p\\appdata\\local\\programs\\python\\python36-32\\lib\\site-packages\\html5lib\\__init__.py',
   'PYMODULE'),
  ('html5lib.serializer',
   'c:\\users\\p\\appdata\\local\\programs\\python\\python36-32\\lib\\site-packages\\html5lib\\serializer.py',
   'PYMODULE'),
  ('html5lib.filters.optionaltags',
   'c:\\users\\p\\appdata\\local\\programs\\python\\python36-32\\lib\\site-packages\\html5lib\\filters\\optionaltags.py',
   'PYMODULE'),
  ('html5lib.filters.base',
   'c:\\users\\p\\appdata\\local\\programs\\python\\python36-32\\lib\\site-packages\\html5lib\\filters\\base.py',
   'PYMODULE'),
  ('html5lib.filters',
   'c:\\users\\p\\appdata\\local\\programs\\python\\python36-32\\lib\\site-packages\\html5lib\\filters\\__init__.py',
   'PYMODULE'),
  ('html5lib.filters.sanitizer',
   'c:\\users\\p\\appdata\\local\\programs\\python\\python36-32\\lib\\site-packages\\html5lib\\filters\\sanitizer.py',
   'PYMODULE'),
  ('html5lib.filters.whitespace',
   'c:\\users\\p\\appdata\\local\\programs\\python\\python36-32\\lib\\site-packages\\html5lib\\filters\\whitespace.py',
   'PYMODULE'),
  ('html5lib.filters.alphabeticalattributes',
   'c:\\users\\p\\appdata\\local\\programs\\python\\python36-32\\lib\\site-packages\\html5lib\\filters\\alphabeticalattributes.py',
   'PYMODULE'),
  ('html5lib.filters.inject_meta_charset',
   'c:\\users\\p\\appdata\\local\\programs\\python\\python36-32\\lib\\site-packages\\html5lib\\filters\\inject_meta_charset.py',
   'PYMODULE'),
  ('html5lib.treewalkers',
   'c:\\users\\p\\appdata\\local\\programs\\python\\python36-32\\lib\\site-packages\\html5lib\\treewalkers\\__init__.py',
   'PYMODULE'),
  ('html5lib.treewalkers.etree',
   'c:\\users\\p\\appdata\\local\\programs\\python\\python36-32\\lib\\site-packages\\html5lib\\treewalkers\\etree.py',
   'PYMODULE'),
  ('html5lib.treewalkers.etree_lxml',
   'c:\\users\\p\\appdata\\local\\programs\\python\\python36-32\\lib\\site-packages\\html5lib\\treewalkers\\etree_lxml.py',
   'PYMODULE'),
  ('html5lib.treewalkers.genshi',
   'c:\\users\\p\\appdata\\local\\programs\\python\\python36-32\\lib\\site-packages\\html5lib\\treewalkers\\genshi.py',
   'PYMODULE'),
  ('html5lib.treewalkers.dom',
   'c:\\users\\p\\appdata\\local\\programs\\python\\python36-32\\lib\\site-packages\\html5lib\\treewalkers\\dom.py',
   'PYMODULE'),
  ('html5lib.treewalkers.base',
   'c:\\users\\p\\appdata\\local\\programs\\python\\python36-32\\lib\\site-packages\\html5lib\\treewalkers\\base.py',
   'PYMODULE'),
  ('html5lib.html5parser',
   'c:\\users\\p\\appdata\\local\\programs\\python\\python36-32\\lib\\site-packages\\html5lib\\html5parser.py',
   'PYMODULE'),
  ('html5lib._tokenizer',
   'c:\\users\\p\\appdata\\local\\programs\\python\\python36-32\\lib\\site-packages\\html5lib\\_tokenizer.py',
   'PYMODULE'),
  ('html5lib._trie',
   'c:\\users\\p\\appdata\\local\\programs\\python\\python36-32\\lib\\site-packages\\html5lib\\_trie\\__init__.py',
   'PYMODULE'),
  ('html5lib._trie.datrie',
   'c:\\users\\p\\appdata\\local\\programs\\python\\python36-32\\lib\\site-packages\\html5lib\\_trie\\datrie.py',
   'PYMODULE'),
  ('html5lib._trie._base',
   'c:\\users\\p\\appdata\\local\\programs\\python\\python36-32\\lib\\site-packages\\html5lib\\_trie\\_base.py',
   'PYMODULE'),
  ('html5lib._trie.py',
   'c:\\users\\p\\appdata\\local\\programs\\python\\python36-32\\lib\\site-packages\\html5lib\\_trie\\py.py',
   'PYMODULE'),
  ('html5lib._inputstream',
   'c:\\users\\p\\appdata\\local\\programs\\python\\python36-32\\lib\\site-packages\\html5lib\\_inputstream.py',
   'PYMODULE'),
  ('webencodings',
   'c:\\users\\p\\appdata\\local\\programs\\python\\python36-32\\lib\\site-packages\\webencodings\\__init__.py',
   'PYMODULE'),
  ('webencodings.x_user_defined',
   'c:\\users\\p\\appdata\\local\\programs\\python\\python36-32\\lib\\site-packages\\webencodings\\x_user_defined.py',
   'PYMODULE'),
  ('webencodings.labels',
   'c:\\users\\p\\appdata\\local\\programs\\python\\python36-32\\lib\\site-packages\\webencodings\\labels.py',
   'PYMODULE'),
  ('bs4.builder._htmlparser',
   'c:\\users\\p\\appdata\\local\\programs\\python\\python36-32\\lib\\site-packages\\bs4\\builder\\_htmlparser.py',
   'PYMODULE'),
  ('html.parser',
   'c:\\users\\p\\appdata\\local\\programs\\python\\python36-32\\lib\\html\\parser.py',
   'PYMODULE'),
  ('_markupbase',
   'c:\\users\\p\\appdata\\local\\programs\\python\\python36-32\\lib\\_markupbase.py',
   'PYMODULE')],
 [('python36.dll',
   'c:\\users\\p\\appdata\\local\\programs\\python\\python36-32\\python36.dll',
   'BINARY'),
  ('api-ms-win-crt-heap-l1-1-0.dll',
   'C:\\Windows\\system32\\api-ms-win-crt-heap-l1-1-0.dll',
   'BINARY'),
  ('api-ms-win-crt-locale-l1-1-0.dll',
   'C:\\Windows\\system32\\api-ms-win-crt-locale-l1-1-0.dll',
   'BINARY'),
  ('api-ms-win-crt-math-l1-1-0.dll',
   'C:\\Windows\\system32\\api-ms-win-crt-math-l1-1-0.dll',
   'BINARY'),
  ('VCRUNTIME140.dll',
   'c:\\users\\p\\appdata\\local\\programs\\python\\python36-32\\VCRUNTIME140.dll',
   'BINARY'),
  ('api-ms-win-crt-stdio-l1-1-0.dll',
   'C:\\Windows\\system32\\api-ms-win-crt-stdio-l1-1-0.dll',
   'BINARY'),
  ('api-ms-win-crt-runtime-l1-1-0.dll',
   'C:\\Windows\\system32\\api-ms-win-crt-runtime-l1-1-0.dll',
   'BINARY'),
  ('api-ms-win-crt-convert-l1-1-0.dll',
   'C:\\Windows\\system32\\api-ms-win-crt-convert-l1-1-0.dll',
   'BINARY'),
  ('api-ms-win-crt-conio-l1-1-0.dll',
   'C:\\Windows\\system32\\api-ms-win-crt-conio-l1-1-0.dll',
   'BINARY'),
  ('api-ms-win-crt-process-l1-1-0.dll',
   'C:\\Windows\\system32\\api-ms-win-crt-process-l1-1-0.dll',
   'BINARY'),
  ('api-ms-win-crt-time-l1-1-0.dll',
   'C:\\Windows\\system32\\api-ms-win-crt-time-l1-1-0.dll',
   'BINARY'),
  ('api-ms-win-crt-filesystem-l1-1-0.dll',
   'C:\\Windows\\system32\\api-ms-win-crt-filesystem-l1-1-0.dll',
   'BINARY'),
  ('api-ms-win-crt-string-l1-1-0.dll',
   'C:\\Windows\\system32\\api-ms-win-crt-string-l1-1-0.dll',
   'BINARY'),
  ('api-ms-win-crt-environment-l1-1-0.dll',
   'C:\\Windows\\system32\\api-ms-win-crt-environment-l1-1-0.dll',
   'BINARY'),
  ('ucrtbase.dll', 'C:\\Windows\\system32\\ucrtbase.dll', 'BINARY'),
  ('api-ms-win-core-namedpipe-l1-1-0.dll',
   'C:\\Windows\\system32\\api-ms-win-core-namedpipe-l1-1-0.dll',
   'BINARY'),
  ('api-ms-win-core-processenvironment-l1-1-0.dll',
   'C:\\Windows\\system32\\api-ms-win-core-processenvironment-l1-1-0.dll',
   'BINARY'),
  ('api-ms-win-core-localization-l1-2-0.dll',
   'C:\\Windows\\system32\\api-ms-win-core-localization-l1-2-0.dll',
   'BINARY'),
  ('api-ms-win-core-rtlsupport-l1-1-0.dll',
   'C:\\Windows\\system32\\api-ms-win-core-rtlsupport-l1-1-0.dll',
   'BINARY'),
  ('api-ms-win-core-processthreads-l1-1-0.dll',
   'C:\\Windows\\system32\\api-ms-win-core-processthreads-l1-1-0.dll',
   'BINARY'),
  ('api-ms-win-core-util-l1-1-0.dll',
   'C:\\Windows\\system32\\api-ms-win-core-util-l1-1-0.dll',
   'BINARY'),
  ('api-ms-win-core-heap-l1-1-0.dll',
   'C:\\Windows\\system32\\api-ms-win-core-heap-l1-1-0.dll',
   'BINARY'),
  ('api-ms-win-core-synch-l1-2-0.dll',
   'C:\\Windows\\system32\\api-ms-win-core-synch-l1-2-0.dll',
   'BINARY'),
  ('api-ms-win-core-interlocked-l1-1-0.dll',
   'C:\\Windows\\system32\\api-ms-win-core-interlocked-l1-1-0.dll',
   'BINARY'),
  ('api-ms-win-core-synch-l1-1-0.dll',
   'C:\\Windows\\system32\\api-ms-win-core-synch-l1-1-0.dll',
   'BINARY'),
  ('api-ms-win-core-debug-l1-1-0.dll',
   'C:\\Windows\\system32\\api-ms-win-core-debug-l1-1-0.dll',
   'BINARY'),
  ('api-ms-win-core-handle-l1-1-0.dll',
   'C:\\Windows\\system32\\api-ms-win-core-handle-l1-1-0.dll',
   'BINARY'),
  ('api-ms-win-core-datetime-l1-1-0.dll',
   'C:\\Windows\\system32\\api-ms-win-core-datetime-l1-1-0.dll',
   'BINARY'),
  ('api-ms-win-core-file-l2-1-0.dll',
   'C:\\Windows\\system32\\api-ms-win-core-file-l2-1-0.dll',
   'BINARY'),
  ('api-ms-win-core-file-l1-2-0.dll',
   'C:\\Windows\\system32\\api-ms-win-core-file-l1-2-0.dll',
   'BINARY'),
  ('api-ms-win-core-processthreads-l1-1-1.dll',
   'C:\\Windows\\system32\\api-ms-win-core-processthreads-l1-1-1.dll',
   'BINARY'),
  ('api-ms-win-core-profile-l1-1-0.dll',
   'C:\\Windows\\system32\\api-ms-win-core-profile-l1-1-0.dll',
   'BINARY'),
  ('api-ms-win-core-string-l1-1-0.dll',
   'C:\\Windows\\system32\\api-ms-win-core-string-l1-1-0.dll',
   'BINARY'),
  ('api-ms-win-core-sysinfo-l1-1-0.dll',
   'C:\\Windows\\system32\\api-ms-win-core-sysinfo-l1-1-0.dll',
   'BINARY'),
  ('api-ms-win-core-errorhandling-l1-1-0.dll',
   'C:\\Windows\\system32\\api-ms-win-core-errorhandling-l1-1-0.dll',
   'BINARY'),
  ('api-ms-win-core-console-l1-1-0.dll',
   'C:\\Windows\\system32\\api-ms-win-core-console-l1-1-0.dll',
   'BINARY'),
  ('api-ms-win-core-file-l1-1-0.dll',
   'C:\\Windows\\system32\\api-ms-win-core-file-l1-1-0.dll',
   'BINARY'),
  ('api-ms-win-core-timezone-l1-1-0.dll',
   'C:\\Windows\\system32\\api-ms-win-core-timezone-l1-1-0.dll',
   'BINARY'),
  ('api-ms-win-core-libraryloader-l1-1-0.dll',
   'C:\\Windows\\system32\\api-ms-win-core-libraryloader-l1-1-0.dll',
   'BINARY'),
  ('api-ms-win-core-memory-l1-1-0.dll',
   'C:\\Windows\\system32\\api-ms-win-core-memory-l1-1-0.dll',
   'BINARY'),
  ('PyQt5\\Qt\\plugins\\imageformats\\qjpeg.dll',
   'C:\\users\\p\\appdata\\local\\programs\\python\\python36-32\\lib\\site-packages\\PyQt5\\Qt\\plugins\\imageformats\\qjpeg.dll',
   'BINARY'),
  ('PyQt5\\Qt\\plugins\\imageformats\\qtiff.dll',
   'C:\\users\\p\\appdata\\local\\programs\\python\\python36-32\\lib\\site-packages\\PyQt5\\Qt\\plugins\\imageformats\\qtiff.dll',
   'BINARY'),
  ('PyQt5\\Qt\\plugins\\platforms\\qminimal.dll',
   'C:\\users\\p\\appdata\\local\\programs\\python\\python36-32\\lib\\site-packages\\PyQt5\\Qt\\plugins\\platforms\\qminimal.dll',
   'BINARY'),
  ('PyQt5\\Qt\\plugins\\imageformats\\qgif.dll',
   'C:\\users\\p\\appdata\\local\\programs\\python\\python36-32\\lib\\site-packages\\PyQt5\\Qt\\plugins\\imageformats\\qgif.dll',
   'BINARY'),
  ('PyQt5\\Qt\\plugins\\iconengines\\qsvgicon.dll',
   'C:\\users\\p\\appdata\\local\\programs\\python\\python36-32\\lib\\site-packages\\PyQt5\\Qt\\plugins\\iconengines\\qsvgicon.dll',
   'BINARY'),
  ('PyQt5\\Qt\\plugins\\imageformats\\qwbmp.dll',
   'C:\\users\\p\\appdata\\local\\programs\\python\\python36-32\\lib\\site-packages\\PyQt5\\Qt\\plugins\\imageformats\\qwbmp.dll',
   'BINARY'),
  ('PyQt5\\Qt\\plugins\\imageformats\\qico.dll',
   'C:\\users\\p\\appdata\\local\\programs\\python\\python36-32\\lib\\site-packages\\PyQt5\\Qt\\plugins\\imageformats\\qico.dll',
   'BINARY'),
  ('PyQt5\\Qt\\plugins\\imageformats\\qsvg.dll',
   'C:\\users\\p\\appdata\\local\\programs\\python\\python36-32\\lib\\site-packages\\PyQt5\\Qt\\plugins\\imageformats\\qsvg.dll',
   'BINARY'),
  ('PyQt5\\Qt\\plugins\\imageformats\\qtga.dll',
   'C:\\users\\p\\appdata\\local\\programs\\python\\python36-32\\lib\\site-packages\\PyQt5\\Qt\\plugins\\imageformats\\qtga.dll',
   'BINARY'),
  ('PyQt5\\Qt\\plugins\\imageformats\\qicns.dll',
   'C:\\users\\p\\appdata\\local\\programs\\python\\python36-32\\lib\\site-packages\\PyQt5\\Qt\\plugins\\imageformats\\qicns.dll',
   'BINARY'),
  ('PyQt5\\Qt\\plugins\\platforms\\qwindows.dll',
   'C:\\users\\p\\appdata\\local\\programs\\python\\python36-32\\lib\\site-packages\\PyQt5\\Qt\\plugins\\platforms\\qwindows.dll',
   'BINARY'),
  ('PyQt5\\Qt\\plugins\\platforms\\qoffscreen.dll',
   'C:\\users\\p\\appdata\\local\\programs\\python\\python36-32\\lib\\site-packages\\PyQt5\\Qt\\plugins\\platforms\\qoffscreen.dll',
   'BINARY'),
  ('PyQt5\\Qt\\plugins\\printsupport\\windowsprintersupport.dll',
   'C:\\users\\p\\appdata\\local\\programs\\python\\python36-32\\lib\\site-packages\\PyQt5\\Qt\\plugins\\printsupport\\windowsprintersupport.dll',
   'BINARY'),
  ('PyQt5\\Qt\\plugins\\imageformats\\qwebp.dll',
   'C:\\users\\p\\appdata\\local\\programs\\python\\python36-32\\lib\\site-packages\\PyQt5\\Qt\\plugins\\imageformats\\qwebp.dll',
   'BINARY'),
  ('_ssl',
   'c:\\users\\p\\appdata\\local\\programs\\python\\python36-32\\DLLs\\_ssl.pyd',
   'EXTENSION'),
  ('unicodedata',
   'c:\\users\\p\\appdata\\local\\programs\\python\\python36-32\\DLLs\\unicodedata.pyd',
   'EXTENSION'),
  ('pyexpat',
   'c:\\users\\p\\appdata\\local\\programs\\python\\python36-32\\DLLs\\pyexpat.pyd',
   'EXTENSION'),
  ('_hashlib',
   'c:\\users\\p\\appdata\\local\\programs\\python\\python36-32\\DLLs\\_hashlib.pyd',
   'EXTENSION'),
  ('_bz2',
   'c:\\users\\p\\appdata\\local\\programs\\python\\python36-32\\DLLs\\_bz2.pyd',
   'EXTENSION'),
  ('_lzma',
   'c:\\users\\p\\appdata\\local\\programs\\python\\python36-32\\DLLs\\_lzma.pyd',
   'EXTENSION'),
  ('_socket',
   'c:\\users\\p\\appdata\\local\\programs\\python\\python36-32\\DLLs\\_socket.pyd',
   'EXTENSION'),
  ('select',
   'c:\\users\\p\\appdata\\local\\programs\\python\\python36-32\\DLLs\\select.pyd',
   'EXTENSION'),
  ('PyQt5.QtGui',
   'c:\\users\\p\\appdata\\local\\programs\\python\\python36-32\\lib\\site-packages\\PyQt5\\QtGui.pyd',
   'EXTENSION'),
  ('PyQt5.QtCore',
   'c:\\users\\p\\appdata\\local\\programs\\python\\python36-32\\lib\\site-packages\\PyQt5\\QtCore.pyd',
   'EXTENSION'),
  ('sip',
   'c:\\users\\p\\appdata\\local\\programs\\python\\python36-32\\lib\\site-packages\\sip.pyd',
   'EXTENSION'),
  ('PyQt5.Qt',
   'c:\\users\\p\\appdata\\local\\programs\\python\\python36-32\\lib\\site-packages\\PyQt5\\Qt.pyd',
   'EXTENSION'),
  ('PyQt5.QtPrintSupport',
   'c:\\users\\p\\appdata\\local\\programs\\python\\python36-32\\lib\\site-packages\\PyQt5\\QtPrintSupport.pyd',
   'EXTENSION'),
  ('PyQt5.QtWidgets',
   'c:\\users\\p\\appdata\\local\\programs\\python\\python36-32\\lib\\site-packages\\PyQt5\\QtWidgets.pyd',
   'EXTENSION'),
  ('win32wnet',
   'c:\\users\\p\\appdata\\local\\programs\\python\\python36-32\\lib\\site-packages\\win32\\win32wnet.pyd',
   'EXTENSION'),
  ('_ctypes',
   'c:\\users\\p\\appdata\\local\\programs\\python\\python36-32\\DLLs\\_ctypes.pyd',
   'EXTENSION'),
  ('lxml.etree',
   'c:\\users\\p\\appdata\\local\\programs\\python\\python36-32\\lib\\site-packages\\lxml\\etree.cp36-win32.pyd',
   'EXTENSION'),
  ('lxml._elementpath',
   'c:\\users\\p\\appdata\\local\\programs\\python\\python36-32\\lib\\site-packages\\lxml\\_elementpath.cp36-win32.pyd',
   'EXTENSION'),
  ('_elementtree',
   'c:\\users\\p\\appdata\\local\\programs\\python\\python36-32\\DLLs\\_elementtree.pyd',
   'EXTENSION'),
  ('Qt5Gui.dll',
   'c:\\users\\p\\appdata\\local\\programs\\python\\python36-32\\lib\\site-packages\\PyQt5\\Qt\\bin\\qt5gui.dll',
   'BINARY'),
  ('Qt5Core.dll',
   'c:\\users\\p\\appdata\\local\\programs\\python\\python36-32\\lib\\site-packages\\PyQt5\\Qt\\bin\\qt5core.dll',
   'BINARY'),
  ('api-ms-win-crt-utility-l1-1-0.dll',
   'C:\\Windows\\system32\\api-ms-win-crt-utility-l1-1-0.dll',
   'BINARY'),
  ('Qt5Svg.dll',
   'c:\\users\\p\\appdata\\local\\programs\\python\\python36-32\\lib\\site-packages\\PyQt5\\Qt\\bin\\qt5svg.dll',
   'BINARY'),
  ('Qt5PrintSupport.dll',
   'c:\\users\\p\\appdata\\local\\programs\\python\\python36-32\\lib\\site-packages\\PyQt5\\Qt\\bin\\qt5printsupport.dll',
   'BINARY'),
  ('python3.dll',
   'c:\\users\\p\\appdata\\local\\programs\\python\\python36-32\\python3.dll',
   'BINARY'),
  ('Qt5Widgets.dll',
   'c:\\users\\p\\appdata\\local\\programs\\python\\python36-32\\lib\\site-packages\\PyQt5\\Qt\\bin\\qt5widgets.dll',
   'BINARY'),
  ('pywintypes36.dll',
   'c:\\users\\p\\appdata\\local\\programs\\python\\python36-32\\lib\\site-packages\\pypiwin32_system32\\pywintypes36.dll',
   'BINARY'),
  ('MSVCP140.dll',
   'c:\\users\\p\\appdata\\local\\programs\\python\\python36-32\\lib\\site-packages\\PyQt5\\Qt\\bin\\MSVCP140.dll',
   'BINARY'),
  ('api-ms-win-crt-multibyte-l1-1-0.dll',
   'C:\\Windows\\system32\\api-ms-win-crt-multibyte-l1-1-0.dll',
   'BINARY')],
 [],
 [],
 [('base_library.zip',
   'C:\\Users\\p\\Desktop\\compile\\build\\ta\\base_library.zip',
   'DATA'),
  ('certifi\\old_root.pem',
   'c:\\users\\p\\appdata\\local\\programs\\python\\python36-32\\lib\\site-packages\\certifi\\old_root.pem',
   'DATA'),
  ('certifi\\weak.pem',
   'c:\\users\\p\\appdata\\local\\programs\\python\\python36-32\\lib\\site-packages\\certifi\\weak.pem',
   'DATA'),
  ('certifi\\cacert.pem',
   'c:\\users\\p\\appdata\\local\\programs\\python\\python36-32\\lib\\site-packages\\certifi\\cacert.pem',
   'DATA'),
  ('PyQt5\\Qt\\bin\\qt.conf',
   'c:\\users\\p\\appdata\\local\\programs\\python\\python36-32\\lib\\site-packages\\PyQt5\\Qt\\bin\\qt.conf',
   'DATA')],
 [])
